{
    "name": "Reaper",
    "maps": [
        {
            "name": "Gameplay",
            "id": "e1844648-387b-43cc-aae9-4d1fea53eb10",
            "actions": [
                {
                    "name": "Move",
                    "type": "Value",
                    "id": "1df7187e-99b1-4005-bf6c-dfdb0de6bb09",
                    "expectedControlType": "Vector2",
                    "processors": "",
                    "interactions": ""
                },
                {
                    "name": "Interact",
                    "type": "Button",
                    "id": "3e9f1e14-3c1c-470a-9274-4973b4b655c0",
                    "expectedControlType": "",
                    "processors": "",
                    "interactions": ""
                },
                {
                    "name": "LightAttack",
                    "type": "Button",
                    "id": "efe26b94-545e-4c0a-9ce1-32a2f6bd0022",
                    "expectedControlType": "",
                    "processors": "",
                    "interactions": ""
                },
                {
                    "name": "HeavyAttack",
                    "type": "Button",
                    "id": "4b49878d-d2e9-4607-a873-ea1fdce5b38d",
                    "expectedControlType": "",
                    "processors": "",
                    "interactions": ""
                },
                {
                    "name": "Sprint",
                    "type": "Button",
                    "id": "044fe7ff-0401-4c09-9307-dee162a35ef0",
                    "expectedControlType": "",
                    "processors": "",
                    "interactions": ""
                },
                {
                    "name": "Emote_Wave",
                    "type": "Button",
                    "id": "b65bba2a-1ba7-46cb-9d58-06edadf52a7e",
                    "expectedControlType": "",
                    "processors": "",
                    "interactions": ""
                },
                {
                    "name": "Emote_Pose",
                    "type": "Button",
                    "id": "76ab19ee-2a7d-4481-80da-c0f42d0db51c",
                    "expectedControlType": "",
                    "processors": "",
                    "interactions": ""
                },
                {
                    "name": "Emote_Point",
                    "type": "Button",
                    "id": "55c0801b-081c-41ba-8a7a-97cd43c26da9",
                    "expectedControlType": "",
                    "processors": "",
                    "interactions": ""
                },
                {
                    "name": "Parry",
                    "type": "Button",
                    "id": "64015597-6cc1-443e-8510-2d548a04bd1a",
                    "expectedControlType": "",
                    "processors": "",
                    "interactions": ""
                },
                {
                    "name": "Pause",
                    "type": "Button",
                    "id": "9bde64a2-9cbc-4b20-b07c-ba8d73c1e275",
                    "expectedControlType": "",
                    "processors": "",
                    "interactions": ""
                }
            ],
            "bindings": [
                {
                    "name": "2D Vector",
                    "id": "92164251-680c-4cfe-9d0f-3b3461c63ef4",
                    "path": "2DVector(normalize=false)",
                    "interactions": "",
                    "processors": "StickDeadzone",
                    "groups": "",
                    "action": "Move",
                    "isComposite": true,
                    "isPartOfComposite": false
                },
                {
                    "name": "up",
                    "id": "40e3077b-7fe0-441f-aa3d-5b723382394e",
                    "path": "<Gamepad>/leftStick/up",
                    "interactions": "",
                    "processors": "",
                    "groups": "Default",
                    "action": "Move",
                    "isComposite": false,
                    "isPartOfComposite": true
                },
                {
                    "name": "down",
                    "id": "2cd9c20d-4953-4b9e-8147-e587782006e5",
                    "path": "<Gamepad>/leftStick/down",
                    "interactions": "",
                    "processors": "",
                    "groups": "Default",
                    "action": "Move",
                    "isComposite": false,
                    "isPartOfComposite": true
                },
                {
                    "name": "left",
                    "id": "afaea5c6-8dd4-410f-9c86-71c0237214cb",
                    "path": "<Gamepad>/leftStick/left",
                    "interactions": "",
                    "processors": "",
                    "groups": "Default",
                    "action": "Move",
                    "isComposite": false,
                    "isPartOfComposite": true
                },
                {
                    "name": "right",
                    "id": "c3a78cc9-7b63-4222-b3eb-94b5bcf20e66",
                    "path": "<Gamepad>/leftStick/right",
                    "interactions": "",
                    "processors": "",
                    "groups": "Default",
                    "action": "Move",
                    "isComposite": false,
                    "isPartOfComposite": true
                },
                {
                    "name": "2D Vector",
                    "id": "1185d282-8f20-412e-965e-61438e13eecc",
                    "path": "2DVector",
                    "interactions": "",
                    "processors": "",
                    "groups": "",
                    "action": "Move",
                    "isComposite": true,
                    "isPartOfComposite": false
                },
                {
                    "name": "up",
                    "id": "cc7d3e0d-bdbc-494e-a30c-d681a2ab7b0c",
                    "path": "<Keyboard>/w",
                    "interactions": "",
                    "processors": "",
                    "groups": "Keyboard",
                    "action": "Move",
                    "isComposite": false,
                    "isPartOfComposite": true
                },
                {
                    "name": "down",
                    "id": "d78fd008-ef23-46ac-b6f8-c48df732a4d4",
                    "path": "<Keyboard>/s",
                    "interactions": "",
                    "processors": "",
                    "groups": "Keyboard",
                    "action": "Move",
                    "isComposite": false,
                    "isPartOfComposite": true
                },
                {
                    "name": "left",
                    "id": "6be4ae61-3ab6-4509-803a-e77ee9fd4169",
                    "path": "<Keyboard>/a",
                    "interactions": "",
                    "processors": "",
                    "groups": "Keyboard",
                    "action": "Move",
                    "isComposite": false,
                    "isPartOfComposite": true
                },
                {
                    "name": "right",
                    "id": "f0be495c-eac3-4faf-8204-159023088280",
                    "path": "<Keyboard>/d",
                    "interactions": "",
                    "processors": "",
                    "groups": "Keyboard",
                    "action": "Move",
                    "isComposite": false,
                    "isPartOfComposite": true
                },
                {
                    "name": "2D Vector",
                    "id": "a45c8cc5-657f-4e3a-80cc-02538dadfdee",
                    "path": "2DVector",
                    "interactions": "",
                    "processors": "StickDeadzone",
                    "groups": "",
                    "action": "Move",
                    "isComposite": true,
                    "isPartOfComposite": false
                },
                {
                    "name": "up",
                    "id": "d20f0c1f-0fc6-4f11-9058-85880cfc0c9e",
                    "path": "<Gamepad>/rightStick/up",
                    "interactions": "",
                    "processors": "",
                    "groups": "Single Controller",
                    "action": "Move",
                    "isComposite": false,
                    "isPartOfComposite": true
                },
                {
                    "name": "down",
                    "id": "9cd16bdf-b818-46e0-9915-a1c6b1af5646",
                    "path": "<Gamepad>/rightStick/down",
                    "interactions": "",
                    "processors": "",
                    "groups": "Single Controller",
                    "action": "Move",
                    "isComposite": false,
                    "isPartOfComposite": true
                },
                {
                    "name": "left",
                    "id": "fa1aeea6-4a29-4d04-ad01-0fc5a7d43d08",
                    "path": "<Gamepad>/rightStick/left",
                    "interactions": "",
                    "processors": "",
                    "groups": "Single Controller",
                    "action": "Move",
                    "isComposite": false,
                    "isPartOfComposite": true
                },
                {
                    "name": "right",
                    "id": "38b29c32-384e-44bc-92bb-3854809e1985",
                    "path": "<Gamepad>/rightStick/right",
                    "interactions": "",
                    "processors": "",
                    "groups": "Single Controller",
                    "action": "Move",
                    "isComposite": false,
                    "isPartOfComposite": true
                },
                {
                    "name": "",
                    "id": "300fe243-636c-4aec-a7a1-79c748125cec",
                    "path": "<Gamepad>/buttonSouth",
                    "interactions": "",
                    "processors": "",
                    "groups": "Default;Single Controller",
                    "action": "Interact",
                    "isComposite": false,
                    "isPartOfComposite": false
                },
                {
                    "name": "",
                    "id": "4a5f47b7-5024-49b9-81d5-3042bcbf175c",
                    "path": "<Keyboard>/f",
                    "interactions": "",
                    "processors": "",
                    "groups": "Keyboard",
                    "action": "Interact",
                    "isComposite": false,
                    "isPartOfComposite": false
                },
                {
                    "name": "",
                    "id": "3c48f790-7b0d-4bdf-aece-1f6d46ca382e",
                    "path": "<Gamepad>/rightShoulder",
                    "interactions": "",
                    "processors": "",
                    "groups": "Default;Single Controller",
                    "action": "LightAttack",
                    "isComposite": false,
                    "isPartOfComposite": false
                },
                {
                    "name": "",
                    "id": "94049809-c1b6-4798-85f9-271ea228224e",
                    "path": "<Keyboard>/e",
                    "interactions": "",
                    "processors": "",
                    "groups": "Keyboard",
                    "action": "LightAttack",
                    "isComposite": false,
                    "isPartOfComposite": false
                },
                {
                    "name": "",
                    "id": "a168acb0-6a72-4efa-a7c5-eef65678a06f",
                    "path": "<Gamepad>/leftTrigger",
                    "interactions": "",
                    "processors": "",
                    "groups": "Default",
                    "action": "HeavyAttack",
                    "isComposite": false,
                    "isPartOfComposite": false
                },
                {
                    "name": "",
                    "id": "1aeb7789-3434-492a-a4ad-9be31212b41e",
                    "path": "<Keyboard>/q",
                    "interactions": "",
                    "processors": "",
                    "groups": "Keyboard",
                    "action": "HeavyAttack",
                    "isComposite": false,
                    "isPartOfComposite": false
                },
                {
                    "name": "",
                    "id": "2627c257-5cdd-41ce-81ba-4656691bf319",
                    "path": "<Gamepad>/rightTrigger",
                    "interactions": "",
                    "processors": "",
                    "groups": "Default;Single Controller",
                    "action": "HeavyAttack",
                    "isComposite": false,
                    "isPartOfComposite": false
                },
                {
                    "name": "",
                    "id": "e206ddaa-9206-4daa-aac0-a61478219b6e",
                    "path": "<Gamepad>/rightShoulder",
                    "interactions": "",
                    "processors": "",
                    "groups": "Default",
                    "action": "Sprint",
                    "isComposite": false,
                    "isPartOfComposite": false
                },
                {
                    "name": "",
                    "id": "4e5687df-eb97-4848-a0c4-100ccfcbb6ca",
                    "path": "<Keyboard>/space",
                    "interactions": "",
                    "processors": "",
                    "groups": "Keyboard",
                    "action": "Sprint",
                    "isComposite": false,
                    "isPartOfComposite": false
                },
                {
                    "name": "",
                    "id": "860a6053-c616-4fff-a0f5-a4403aeed70d",
                    "path": "<Gamepad>/rightStickPress",
                    "interactions": "",
                    "processors": "",
                    "groups": "Single Controller",
                    "action": "Sprint",
                    "isComposite": false,
                    "isPartOfComposite": false
                },
                {
                    "name": "",
                    "id": "5b9b3ca4-826f-4d0d-a006-5546343630ad",
                    "path": "<Gamepad>/buttonWest",
                    "interactions": "",
                    "processors": "",
                    "groups": "Default;Single Controller",
                    "action": "Emote_Wave",
                    "isComposite": false,
                    "isPartOfComposite": false
                },
                {
                    "name": "",
                    "id": "4f6e14eb-8196-4fa7-a552-6ea092c62111",
                    "path": "<Keyboard>/z",
                    "interactions": "",
                    "processors": "",
                    "groups": "Keyboard",
                    "action": "Emote_Wave",
                    "isComposite": false,
                    "isPartOfComposite": false
                },
                {
                    "name": "",
                    "id": "5d3d5ac2-9af3-4157-a76f-38d7fe53d39b",
                    "path": "<Gamepad>/buttonEast",
                    "interactions": "",
                    "processors": "",
                    "groups": "Default;Single Controller",
                    "action": "Emote_Pose",
                    "isComposite": false,
                    "isPartOfComposite": false
                },
                {
                    "name": "",
                    "id": "e4bf5264-9e0d-4f43-91b5-d55ba493fed3",
                    "path": "<Keyboard>/x",
                    "interactions": "",
                    "processors": "",
                    "groups": "Keyboard",
                    "action": "Emote_Pose",
                    "isComposite": false,
                    "isPartOfComposite": false
                },
                {
                    "name": "",
                    "id": "2888f6c9-2fd4-4c57-aa37-a75d3e4da720",
                    "path": "<Gamepad>/buttonNorth",
                    "interactions": "",
                    "processors": "",
                    "groups": "Default;Single Controller",
                    "action": "Emote_Point",
                    "isComposite": false,
                    "isPartOfComposite": false
                },
                {
                    "name": "",
                    "id": "99355209-47c3-4bc8-a987-a30ba9c345b1",
                    "path": "<Keyboard>/c",
                    "interactions": "",
                    "processors": "",
                    "groups": "Keyboard",
                    "action": "Emote_Point",
                    "isComposite": false,
                    "isPartOfComposite": false
                },
                {
                    "name": "",
                    "id": "65e5852d-ab99-48c9-80a1-a159109c6e05",
                    "path": "",
                    "interactions": "",
                    "processors": "",
                    "groups": "",
                    "action": "Parry",
                    "isComposite": false,
                    "isPartOfComposite": false
                },
                {
                    "name": "",
                    "id": "c5435833-3541-4d2a-8bf5-d393078f1bf0",
                    "path": "<Gamepad>/start",
                    "interactions": "",
                    "processors": "",
                    "groups": "Default;Single Controller",
                    "action": "Pause",
                    "isComposite": false,
                    "isPartOfComposite": false
                },
                {
                    "name": "",
                    "id": "caca68e2-296b-400e-9c34-53ac00da488b",
                    "path": "<Keyboard>/escape",
                    "interactions": "",
                    "processors": "",
                    "groups": "Keyboard",
                    "action": "Pause",
                    "isComposite": false,
                    "isPartOfComposite": false
                }
            ]
        }
    ],
    "controlSchemes": [
        {
            "name": "Default",
            "bindingGroup": "Default",
            "devices": [
                {
                    "devicePath": "<Gamepad>",
                    "isOptional": false,
                    "isOR": false
                }
            ]
        },
        {
            "name": "Keyboard",
            "bindingGroup": "Keyboard",
            "devices": [
                {
                    "devicePath": "<Keyboard>",
                    "isOptional": false,
                    "isOR": false
                },
                {
                    "devicePath": "<Mouse>",
                    "isOptional": true,
                    "isOR": false
                }
            ]
        },
        {
            "name": "Single Controller",
            "bindingGroup": "Single Controller",
            "devices": [
                {
                    "devicePath": "<Gamepad>",
                    "isOptional": false,
                    "isOR": false
                }
            ]
        }
    ]
}