%YAML 1.1
%TAG !u! tag:unity3d.com,2011:
--- !u!1 &1937644538037493718
GameObject:
  m_ObjectHideFlags: 0
  m_CorrespondingSourceObject: {fileID: 0}
  m_PrefabInstance: {fileID: 0}
  m_PrefabAsset: {fileID: 0}
  serializedVersion: 6
  m_Component:
  - component: {fileID: 4785744000787172845}
  - component: {fileID: 1526125319659733624}
  - component: {fileID: 7526009111090849455}
  - component: {fileID: 48574036177325115}
  - component: {fileID: 9022113781625660601}
  m_Layer: 0
  m_Name: Wall_Inside
  m_TagString: Untagged
  m_Icon: {fileID: 0}
  m_NavMeshLayer: 0
  m_StaticEditorFlags: 0
  m_IsActive: 1
--- !u!4 &4785744000787172845
Transform:
  m_ObjectHideFlags: 0
  m_CorrespondingSourceObject: {fileID: 0}
  m_PrefabInstance: {fileID: 0}
  m_PrefabAsset: {fileID: 0}
  m_GameObject: {fileID: 1937644538037493718}
  m_LocalRotation: {x: 0, y: 0.7071068, z: -0, w: -0.7071068}
  m_LocalPosition: {x: -16.867373, y: 1.7508731, z: 1.2159054}
  m_LocalScale: {x: 1, y: 1, z: 1}
  m_Children: []
  m_Father: {fileID: 0}
  m_RootOrder: 0
  m_LocalEulerAnglesHint: {x: 0, y: 270, z: 0}
--- !u!33 &1526125319659733624
MeshFilter:
  m_ObjectHideFlags: 0
  m_CorrespondingSourceObject: {fileID: 0}
  m_PrefabInstance: {fileID: 0}
  m_PrefabAsset: {fileID: 0}
  m_GameObject: {fileID: 1937644538037493718}
  m_Mesh: {fileID: 0}
--- !u!23 &7526009111090849455
MeshRenderer:
  m_ObjectHideFlags: 0
  m_CorrespondingSourceObject: {fileID: 0}
  m_PrefabInstance: {fileID: 0}
  m_PrefabAsset: {fileID: 0}
  m_GameObject: {fileID: 1937644538037493718}
  m_Enabled: 1
  m_CastShadows: 1
  m_ReceiveShadows: 1
  m_DynamicOccludee: 1
  m_MotionVectors: 1
  m_LightProbeUsage: 1
  m_ReflectionProbeUsage: 1
  m_RayTracingMode: 2
  m_RenderingLayerMask: 1
  m_RendererPriority: 0
  m_Materials:
  - {fileID: 2100000, guid: 0ed80926555e6604cbc986b8a27f3057, type: 2}
  m_StaticBatchInfo:
    firstSubMesh: 0
    subMeshCount: 0
  m_StaticBatchRoot: {fileID: 0}
  m_ProbeAnchor: {fileID: 0}
  m_LightProbeVolumeOverride: {fileID: 0}
  m_ScaleInLightmap: 1
  m_ReceiveGI: 1
  m_PreserveUVs: 0
  m_IgnoreNormalsForChartDetection: 0
  m_ImportantGI: 0
  m_StitchLightmapSeams: 1
  m_SelectedEditorRenderState: 2
  m_MinimumChartSize: 4
  m_AutoUVMaxDistance: 0.5
  m_AutoUVMaxAngle: 89
  m_LightmapParameters: {fileID: 0}
  m_SortingLayerID: 0
  m_SortingLayer: 0
  m_SortingOrder: 0
--- !u!114 &48574036177325115
MonoBehaviour:
  m_ObjectHideFlags: 0
  m_CorrespondingSourceObject: {fileID: 0}
  m_PrefabInstance: {fileID: 0}
  m_PrefabAsset: {fileID: 0}
  m_GameObject: {fileID: 1937644538037493718}
  m_Enabled: 1
  m_EditorHideFlags: 0
  m_Script: {fileID: 11500000, guid: 8233d90336aea43098adf6dbabd606a2, type: 3}
  m_Name: 
  m_EditorClassIdentifier: 
  m_MeshFormatVersion: 1
  m_Faces:
  - m_Indexes: 000000000100000002000000010000000300000002000000
    m_SmoothingGroup: 0
    m_Uv:
      m_UseWorldSpace: 0
      m_FlipU: 0
      m_FlipV: 0
      m_SwapUV: 0
      m_Fill: 1
      m_Scale: {x: 1, y: 1}
      m_Offset: {x: 0, y: 0}
      m_Rotation: 0
      m_Anchor: 9
    m_Material: {fileID: 0}
    m_SubmeshIndex: 0
    m_ManualUV: 0
    elementGroup: -1
    m_TextureGroup: -1
  - m_Indexes: 040000000500000006000000050000000700000006000000
    m_SmoothingGroup: 0
    m_Uv:
      m_UseWorldSpace: 0
      m_FlipU: 0
      m_FlipV: 0
      m_SwapUV: 0
      m_Fill: 1
      m_Scale: {x: 1, y: 1}
      m_Offset: {x: 0, y: 0}
      m_Rotation: 0
      m_Anchor: 9
    m_Material: {fileID: 0}
    m_SubmeshIndex: 0
    m_ManualUV: 0
    elementGroup: -1
    m_TextureGroup: -1
  - m_Indexes: 08000000090000000a000000090000000b0000000a000000
    m_SmoothingGroup: 0
    m_Uv:
      m_UseWorldSpace: 0
      m_FlipU: 0
      m_FlipV: 0
      m_SwapUV: 0
      m_Fill: 1
      m_Scale: {x: 1, y: 1}
      m_Offset: {x: 0, y: 0}
      m_Rotation: 0
      m_Anchor: 9
    m_Material: {fileID: 0}
    m_SubmeshIndex: 0
    m_ManualUV: 0
    elementGroup: -1
    m_TextureGroup: -1
  - m_Indexes: 0c0000000d0000000e0000000d0000000f0000000e000000
    m_SmoothingGroup: 0
    m_Uv:
      m_UseWorldSpace: 0
      m_FlipU: 0
      m_FlipV: 0
      m_SwapUV: 0
      m_Fill: 1
      m_Scale: {x: 1, y: 1}
      m_Offset: {x: 0, y: 0}
      m_Rotation: 0
      m_Anchor: 9
    m_Material: {fileID: 0}
    m_SubmeshIndex: 0
    m_ManualUV: 0
    elementGroup: -1
    m_TextureGroup: -1
  - m_Indexes: 100000001100000012000000110000001300000012000000
    m_SmoothingGroup: 0
    m_Uv:
      m_UseWorldSpace: 0
      m_FlipU: 0
      m_FlipV: 0
      m_SwapUV: 0
      m_Fill: 1
      m_Scale: {x: 1, y: 1}
      m_Offset: {x: 0, y: 0}
      m_Rotation: 0
      m_Anchor: 9
    m_Material: {fileID: 0}
    m_SubmeshIndex: 0
    m_ManualUV: 0
    elementGroup: -1
    m_TextureGroup: -1
  - m_Indexes: 140000001500000016000000150000001700000016000000
    m_SmoothingGroup: 0
    m_Uv:
      m_UseWorldSpace: 0
      m_FlipU: 0
      m_FlipV: 0
      m_SwapUV: 0
      m_Fill: 1
      m_Scale: {x: 1, y: 1}
      m_Offset: {x: 0, y: 0}
      m_Rotation: 0
      m_Anchor: 9
    m_Material: {fileID: 0}
    m_SubmeshIndex: 0
    m_ManualUV: 0
    elementGroup: -1
    m_TextureGroup: -1
  - m_Indexes: 18000000190000001a000000190000001b0000001a000000
    m_SmoothingGroup: 0
    m_Uv:
      m_UseWorldSpace: 0
      m_FlipU: 0
      m_FlipV: 0
      m_SwapUV: 0
      m_Fill: 1
      m_Scale: {x: 1, y: 1}
      m_Offset: {x: 0, y: 0}
      m_Rotation: 0
      m_Anchor: 9
    m_Material: {fileID: 0}
    m_SubmeshIndex: 0
    m_ManualUV: 0
    elementGroup: -1
    m_TextureGroup: -1
  - m_Indexes: 1c0000001d0000001e0000001d0000001f0000001e000000
    m_SmoothingGroup: 0
    m_Uv:
      m_UseWorldSpace: 0
      m_FlipU: 0
      m_FlipV: 0
      m_SwapUV: 0
      m_Fill: 1
      m_Scale: {x: 1, y: 1}
      m_Offset: {x: 0, y: 0}
      m_Rotation: 0
      m_Anchor: 9
    m_Material: {fileID: 0}
    m_SubmeshIndex: 0
    m_ManualUV: 0
    elementGroup: -1
    m_TextureGroup: -1
  - m_Indexes: 200000002100000022000000210000002300000022000000
    m_SmoothingGroup: 0
    m_Uv:
      m_UseWorldSpace: 0
      m_FlipU: 0
      m_FlipV: 0
      m_SwapUV: 0
      m_Fill: 1
      m_Scale: {x: 1, y: 1}
      m_Offset: {x: 0, y: 0}
      m_Rotation: 0
      m_Anchor: 9
    m_Material: {fileID: 0}
    m_SubmeshIndex: 0
    m_ManualUV: 0
    elementGroup: -1
    m_TextureGroup: -1
  - m_Indexes: 240000002500000026000000250000002700000026000000
    m_SmoothingGroup: 0
    m_Uv:
      m_UseWorldSpace: 0
      m_FlipU: 0
      m_FlipV: 0
      m_SwapUV: 0
      m_Fill: 1
      m_Scale: {x: 1, y: 1}
      m_Offset: {x: 0, y: 0}
      m_Rotation: 0
      m_Anchor: 9
    m_Material: {fileID: 0}
    m_SubmeshIndex: 0
    m_ManualUV: 0
    elementGroup: -1
    m_TextureGroup: -1
  - m_Indexes: 28000000290000002a000000290000002b0000002a000000
    m_SmoothingGroup: 0
    m_Uv:
      m_UseWorldSpace: 0
      m_FlipU: 0
      m_FlipV: 0
      m_SwapUV: 0
      m_Fill: 1
      m_Scale: {x: 1, y: 1}
      m_Offset: {x: 0, y: 0}
      m_Rotation: 0
      m_Anchor: 9
    m_Material: {fileID: 0}
    m_SubmeshIndex: 0
    m_ManualUV: 0
    elementGroup: -1
    m_TextureGroup: -1
  - m_Indexes: 2c0000002d0000002e0000002d0000002f0000002e000000
    m_SmoothingGroup: 0
    m_Uv:
      m_UseWorldSpace: 0
      m_FlipU: 0
      m_FlipV: 0
      m_SwapUV: 0
      m_Fill: 1
      m_Scale: {x: 1, y: 1}
      m_Offset: {x: 0, y: 0}
      m_Rotation: 0
      m_Anchor: 9
    m_Material: {fileID: 0}
    m_SubmeshIndex: 0
    m_ManualUV: 0
    elementGroup: -1
    m_TextureGroup: -1
  - m_Indexes: 300000003100000032000000310000003300000032000000
    m_SmoothingGroup: 0
    m_Uv:
      m_UseWorldSpace: 0
      m_FlipU: 0
      m_FlipV: 0
      m_SwapUV: 0
      m_Fill: 1
      m_Scale: {x: 1, y: 1}
      m_Offset: {x: 0, y: 0}
      m_Rotation: 0
      m_Anchor: 9
    m_Material: {fileID: 0}
    m_SubmeshIndex: 0
    m_ManualUV: 0
    elementGroup: -1
    m_TextureGroup: -1
  - m_Indexes: 340000003500000036000000350000003700000036000000
    m_SmoothingGroup: 0
    m_Uv:
      m_UseWorldSpace: 0
      m_FlipU: 0
      m_FlipV: 0
      m_SwapUV: 0
      m_Fill: 1
      m_Scale: {x: 1, y: 1}
      m_Offset: {x: 0, y: 0}
      m_Rotation: 0
      m_Anchor: 9
    m_Material: {fileID: 0}
    m_SubmeshIndex: 0
    m_ManualUV: 0
    elementGroup: -1
    m_TextureGroup: -1
  m_SharedVertices:
  - m_Vertices: 00000000160000001900000020000000
  - m_Vertices: 0d0000001b00000022000000
  - m_Vertices: 010000000400000017000000
  - m_Vertices: 02000000100000002100000024000000
  - m_Vertices: 0f0000002300000026000000
  - m_Vertices: 030000000600000011000000
  - m_Vertices: 0500000015000000280000002d000000
  - m_Vertices: 080000002a0000002f000000
  - m_Vertices: 07000000130000002c00000035000000
  - m_Vertices: 0a0000002e00000037000000
  - m_Vertices: 090000002b00000032000000
  - m_Vertices: 14000000180000001d0000002900000030000000
  - m_Vertices: 0c0000001a0000001f000000
  - m_Vertices: 0b0000003300000036000000
  - m_Vertices: 120000001c000000250000003100000034000000
  - m_Vertices: 0e0000001e00000027000000
  m_SharedTextures: []
  m_Positions:
  - {x: 0, y: 0, z: 0}
  - {x: 0.75, y: 0, z: 0}
  - {x: 0, y: 1.5, z: 0}
  - {x: 0.75, y: 1.5, z: 0}
  - {x: 0.75, y: 0, z: 0}
  - {x: 0.75, y: 0, z: -0.75}
  - {x: 0.75, y: 1.5, z: 0}
  - {x: 0.75, y: 1.5, z: -0.75}
  - {x: 0.75, y: 0, z: -1}
  - {x: 0, y: 0, z: -1}
  - {x: 0.75, y: 1.5, z: -1}
  - {x: 0, y: 1.5, z: -1}
  - {x: -0.25, y: 0, z: -0.75}
  - {x: -0.25, y: 0, z: 0}
  - {x: -0.25, y: 1.5, z: -0.75}
  - {x: -0.25, y: 1.5, z: 0}
  - {x: 0, y: 1.5, z: 0}
  - {x: 0.75, y: 1.5, z: 0}
  - {x: 0, y: 1.5, z: -0.75}
  - {x: 0.75, y: 1.5, z: -0.75}
  - {x: 0, y: 0, z: -0.75}
  - {x: 0.75, y: 0, z: -0.75}
  - {x: 0, y: 0, z: 0}
  - {x: 0.75, y: 0, z: 0}
  - {x: 0, y: 0, z: -0.75}
  - {x: 0, y: 0, z: 0}
  - {x: -0.25, y: 0, z: -0.75}
  - {x: -0.25, y: 0, z: 0}
  - {x: 0, y: 1.5, z: -0.75}
  - {x: 0, y: 0, z: -0.75}
  - {x: -0.25, y: 1.5, z: -0.75}
  - {x: -0.25, y: 0, z: -0.75}
  - {x: 0, y: 0, z: 0}
  - {x: 0, y: 1.5, z: 0}
  - {x: -0.25, y: 0, z: 0}
  - {x: -0.25, y: 1.5, z: 0}
  - {x: 0, y: 1.5, z: 0}
  - {x: 0, y: 1.5, z: -0.75}
  - {x: -0.25, y: 1.5, z: 0}
  - {x: -0.25, y: 1.5, z: -0.75}
  - {x: 0.75, y: 0, z: -0.75}
  - {x: 0, y: 0, z: -0.75}
  - {x: 0.75, y: 0, z: -1}
  - {x: 0, y: 0, z: -1}
  - {x: 0.75, y: 1.5, z: -0.75}
  - {x: 0.75, y: 0, z: -0.75}
  - {x: 0.75, y: 1.5, z: -1}
  - {x: 0.75, y: 0, z: -1}
  - {x: 0, y: 0, z: -0.75}
  - {x: 0, y: 1.5, z: -0.75}
  - {x: 0, y: 0, z: -1}
  - {x: 0, y: 1.5, z: -1}
  - {x: 0, y: 1.5, z: -0.75}
  - {x: 0.75, y: 1.5, z: -0.75}
  - {x: 0, y: 1.5, z: -1}
  - {x: 0.75, y: 1.5, z: -1}
  m_Textures0:
  - {x: 0, y: 0}
  - {x: -0.75, y: 0}
  - {x: 0, y: 1.5}
  - {x: -0.75, y: 1.5}
  - {x: 0, y: 0}
  - {x: -0.75, y: 0}
  - {x: 0, y: 1.5}
  - {x: -0.75, y: 1.5}
  - {x: 0.75, y: 0}
  - {x: 0, y: 0}
  - {x: 0.75, y: 1.5}
  - {x: 0, y: 1.5}
  - {x: 0.75, y: 0}
  - {x: 0, y: 0}
  - {x: 0.75, y: 1.5}
  - {x: 0, y: 1.5}
  - {x: 0, y: 0}
  - {x: 0.75, y: 0}
  - {x: 0, y: -0.75}
  - {x: 0.75, y: -0.75}
  - {x: 0, y: -0.75}
  - {x: -0.75, y: -0.75}
  - {x: 0, y: 0}
  - {x: -0.75, y: 0}
  - {x: 0, y: -0.75}
  - {x: 0, y: 0}
  - {x: 0.25, y: -0.75}
  - {x: 0.25, y: 0}
  - {x: 0, y: 1.5}
  - {x: 0, y: 0}
  - {x: -0.25, y: 1.5}
  - {x: -0.25, y: 0}
  - {x: 0, y: 0}
  - {x: 0, y: 1.5}
  - {x: 0.25, y: 0}
  - {x: 0.25, y: 1.5}
  - {x: 0, y: 0}
  - {x: 0, y: -0.75}
  - {x: -0.25, y: 0}
  - {x: -0.25, y: -0.75}
  - {x: -0.75, y: -0.75}
  - {x: 0, y: -0.75}
  - {x: -0.75, y: -1}
  - {x: 0, y: -1}
  - {x: -0.75, y: 1.5}
  - {x: -0.75, y: 0}
  - {x: -1, y: 1.5}
  - {x: -1, y: 0}
  - {x: 0.75, y: 0}
  - {x: 0.75, y: 1.5}
  - {x: 1, y: 0}
  - {x: 1, y: 1.5}
  - {x: 0, y: -0.75}
  - {x: 0.75, y: -0.75}
  - {x: 0, y: -1}
  - {x: 0.75, y: -1}
  m_Textures2: []
  m_Textures3: []
  m_Tangents:
  - {x: -1, y: 0, z: 0, w: -1}
  - {x: -1, y: 0, z: 0, w: -1}
  - {x: -1, y: 0, z: 0, w: -1}
  - {x: -1, y: 0, z: 0, w: -1}
  - {x: 0, y: 0, z: 1, w: -1}
  - {x: 0, y: 0, z: 1, w: -1}
  - {x: 0, y: 0, z: 1, w: -1}
  - {x: 0, y: 0, z: 1, w: -1}
  - {x: 1, y: 0, z: 0, w: -1}
  - {x: 1, y: 0, z: 0, w: -1}
  - {x: 1, y: 0, z: 0, w: -1}
  - {x: 1, y: 0, z: 0, w: -1}
  - {x: 0, y: 0, z: -1, w: -1}
  - {x: 0, y: 0, z: -1, w: -1}
  - {x: 0, y: 0, z: -1, w: -1}
  - {x: 0, y: 0, z: -1, w: -1}
  - {x: 1, y: 0, z: 0, w: -1}
  - {x: 1, y: 0, z: 0, w: -1}
  - {x: 1, y: 0, z: 0, w: -1}
  - {x: 1, y: 0, z: 0, w: -1}
  - {x: -1, y: 0, z: 0, w: -1}
  - {x: -1, y: 0, z: 0, w: -1}
  - {x: -1, y: 0, z: 0, w: -1}
  - {x: -1, y: 0, z: 0, w: -1}
  - {x: -1, y: 0, z: 0, w: -1}
  - {x: -1, y: 0, z: 0, w: -1}
  - {x: -1, y: 0, z: 0, w: -1}
  - {x: -1, y: 0, z: 0, w: -1}
  - {x: 1, y: 0, z: 0, w: -1}
  - {x: 1, y: 0, z: 0, w: -1}
  - {x: 1, y: 0, z: 0, w: -1}
  - {x: 1, y: 0, z: 0, w: -1}
  - {x: -1, y: 0, z: 0, w: -1}
  - {x: -1, y: 0, z: 0, w: -1}
  - {x: -1, y: 0, z: 0, w: -1}
  - {x: -1, y: 0, z: 0, w: -1}
  - {x: 1, y: 0, z: 0, w: -1}
  - {x: 1, y: 0, z: 0, w: -1}
  - {x: 1, y: 0, z: 0, w: -1}
  - {x: 1, y: 0, z: 0, w: -1}
  - {x: -1, y: 0, z: 0, w: -1}
  - {x: -1, y: 0, z: 0, w: -1}
  - {x: -1, y: 0, z: 0, w: -1}
  - {x: -1, y: 0, z: 0, w: -1}
  - {x: 0, y: 0, z: 1, w: -1}
  - {x: 0, y: 0, z: 1, w: -1}
  - {x: 0, y: 0, z: 1, w: -1}
  - {x: 0, y: 0, z: 1, w: -1}
  - {x: 0, y: 0, z: -1, w: -1}
  - {x: 0, y: 0, z: -1, w: -1}
  - {x: 0, y: 0, z: -1, w: -1}
  - {x: 0, y: 0, z: -1, w: -1}
  - {x: 1, y: 0, z: 0, w: -1}
  - {x: 1, y: 0, z: 0, w: -1}
  - {x: 1, y: 0, z: 0, w: -1}
  - {x: 1, y: 0, z: 0, w: -1}
  m_Colors: []
  m_UnwrapParameters:
    m_HardAngle: 88
    m_PackMargin: 20
    m_AngleError: 8
    m_AreaError: 15
  m_PreserveMeshAssetOnDestroy: 0
  assetGuid: 
  m_IsSelectable: 1
  m_SelectedFaces: 00000000
  m_SelectedEdges:
  - a: 0
    b: 1
  - a: 2
    b: 0
  - a: 1
    b: 3
  - a: 3
    b: 2
  m_SelectedVertices: 00000000010000000200000003000000
--- !u!64 &9022113781625660601
MeshCollider:
  m_ObjectHideFlags: 0
  m_CorrespondingSourceObject: {fileID: 0}
  m_PrefabInstance: {fileID: 0}
  m_PrefabAsset: {fileID: 0}
  m_GameObject: {fileID: 1937644538037493718}
  m_Material: {fileID: 0}
  m_IsTrigger: 0
  m_Enabled: 1
  serializedVersion: 3
  m_Convex: 0
  m_CookingOptions: 14
  m_Mesh: {fileID: 0}
