%YAML 1.1
%TAG !u! tag:unity3d.com,2011:
--- !u!1045 &1
EditorBuildSettings:
  m_ObjectHideFlags: 0
  serializedVersion: 2
  m_Scenes:
  - enabled: 1
    path: Assets/Scenes/Persistant.unity
    guid: a908b4e78f9e9174ba529f706f3fa485
  - enabled: 1
    path: Assets/Scenes/Menu/MenuNav.unity
    guid: c4b53e038e155c04f82521377d758aa6
  - enabled: 1
    path: Assets/Scenes/Levels/Test_Env.unity
    guid: 03bb4a8ad8b1ddd45a02322ebaf6164e
  - enabled: 1
    path: Assets/Scenes/Levels/L1-S-A.unity
    guid: b8eafc3277c6c7849999c1c3fd68450c
  - enabled: 1
    path: Assets/Scenes/Levels/L2-S-A.unity
    guid: 8e2606105d402454eafe810e49acc333
  - enabled: 1
    path: Assets/Scenes/Levels/L3.unity
    guid: ef89abb0f7943fa478cec2b31d76e87f
  - enabled: 1
    path: Assets/Scenes/Levels/L4-S.unity
    guid: dc610222db63f2d429c65623820b2500
  - enabled: 1
    path: Assets/Scenes/Levels/L6-S.unity
    guid: f85f6af5752748c4f99909afe1f3e21e
  - enabled: 1
    path: Assets/Scenes/Levels/L8-S.unity
    guid: e9ca7a9b72611de4e987299c8105b20a
  m_configObjects:
    com.unity.input.settings: {fileID: 11400000, guid: 8e2d6ae398d3f6048a218f5c0bbd2d8e,
      type: 2}
    com.unity.xr.management.loader_settings: {fileID: 11400000, guid: 30cd4003b2c5af34cbc3feb7094d81ba,
      type: 2}
